…
board_games_mech %>% 
  group_by(name) %>% 
  summarize(n = n()) %>% 
  pull() %>% 
  range()

## [1]  1 18

board_games_mech %>% 
  group_by(mechanic) %>% 
  tally() %>% 
  arrange(desc(n))

## # A tibble: 51 x 2
##    mechanic                          n
##    <chr>                         <int>
##  1 Dice Rolling                   2438
##  2 Hand Management                2176
##  3 Set Collection                 1347
##  4 Hex-and-Counter                1244
##  5 Variable Player Powers         1223
##  6 Tile Placement                  907
##  7 Modular Board                   858
##  8 Card Drafting                   844
##  9 Area Control / Area Influence   803
## 10 Auction/Bidding                 682
## # … with 41 more rows
…
